{
  "project_info": {
    "project_number": "448677244826",
    "firebase_url": "https://fribble-a1334.firebaseio.com",
    "project_id": "fribble-a1334",
    "storage_bucket": "fribble-a1334.appspot.com"
  },
  "client": [
    {
      "client_info": {
        "mobilesdk_app_id": "1:448677244826:android:2bf24e6131c0eb38",
        "android_client_info": {
          "package_name": "school.flutter.fribbble"
        }
      },
      "oauth_client": [
        {
          "client_id": "448677244826-sp7s3kg71aafn9r2lni18r2njrhj9lpp.apps.googleusercontent.com",
          "client_type": 1,
          "android_info": {
            "package_name": "school.flutter.fribbble",
            "certificate_hash": "fd4d3c73974206f7a36b9aa9dc361f614814c3d3"
          }
        },
        {
          "client_id": "448677244826-qgmuj6jn5b661rnl4dgg6ru5arkv16tp.apps.googleusercontent.com",
          "client_type": 3
        }
      ],
      "api_key": [
        {
          "current_key": "AIzaSyDOXbe5ddB-HfjXIAVm47Y0hCfZvCG31FA"
        }
      ],
      "services": {
        "appinvite_service": {
          "other_platform_oauth_client": [
            {
              "client_id": "448677244826-qgmuj6jn5b661rnl4dgg6ru5arkv16tp.apps.googleusercontent.com",
              "client_type": 3
            },
            {
              "client_id": "448677244826-cfvpq8luoguq1f729dcii75mbmc1gaj0.apps.googleusercontent.com",
              "client_type": 2,
              "ios_info": {
                "bundle_id": "test"
              }
            }
          ]
        }
      }
    }
  ],
  "configuration_version": "1"
}